br\com\lp3\apicliente\repository\ClienteRepository.class
br\com\lp3\apicliente\controller\ClienteController.class
br\com\lp3\apicliente\service\ClienteService.class
br\com\lp3\apicliente\Application.class
br\com\lp3\apicliente\dto\ClienteDTO.class
br\com\lp3\apicliente\model\Cliente.class
